<?xml version="1.0" encoding="utf-8"?>
<!-- Generator: Adobe Illustrator 23.0.1, SVG Export Plug-In . SVG Version: 6.00 Build 0)  -->
<svg version="1.1" id="Layer_1" xmlns="http://www.w3.org/2000/svg" xmlns:xlink="http://www.w3.org/1999/xlink" x="0px" y="0px"
	 viewBox="0 0 101 22" style="enable-background:new 0 0 101 22;" xml:space="preserve">
<style type="text/css">
	.st0{fill:#FAFAFA;}
</style>
<g>
	<path class="st0" d="M3.8,8.2c0.9,0,2.5,0.4,2.5,1.6v0.8H4.8v-0.4c0-0.4-0.6-0.5-1-0.5c-1.2,0-2,0.9-2,2.2c0,1.4,1,2.1,2.2,2.1
		c1.2,0,2-0.9,2-0.9l0.7,1.2c0,0-1,1.2-2.9,1.2c-2.3,0-3.7-1.6-3.7-3.6C0,9.8,1.4,8.2,3.8,8.2z"/>
	<path class="st0" d="M8,10.1c0-0.2-0.1-0.3-0.3-0.3H7.1V8.3h1.6c0.6,0,0.9,0.3,0.9,0.8v0.4c0,0.3,0,0.4,0,0.4h0
		c0.3-1,1.1-1.8,2.2-1.8c0.1,0,0.3,0,0.3,0V10c0,0-0.2,0-0.4,0c-0.7,0-1.6,0.4-1.9,1.5c-0.1,0.3-0.1,0.7-0.1,1.1v2.7H8V10.1z"/>
	<path class="st0" d="M16.6,10.9h0.2v-0.1c0-1-0.4-1.4-1.3-1.4c-0.3,0-0.9,0.1-0.9,0.5v0.4H13V9.6c0-1.3,1.8-1.4,2.5-1.4
		c2.3,0,3,1.2,3,2.8v2.6c0,0.2,0.1,0.3,0.3,0.3h0.5v1.5h-1.5c-0.6,0-0.9-0.4-0.9-0.8c0-0.2,0-0.3,0-0.3h0c0,0-0.5,1.2-2.1,1.2
		c-1.2,0-2.4-0.8-2.4-2.2C12.5,11.1,15.5,10.9,16.6,10.9z M15.3,14.1c0.9,0,1.6-1,1.6-1.8v-0.2h-0.3c-0.9,0-2.3,0.1-2.3,1.1
		C14.2,13.6,14.6,14.1,15.3,14.1z"/>
	<path class="st0" d="M23.2,8.2c1.5,0,2,0.8,2,0.8h0c0,0,0-0.2,0-0.4V7.4c0-0.2-0.1-0.3-0.3-0.3h-0.5V5.6H26c0.6,0,0.9,0.3,0.9,0.9
		v7c0,0.2,0.1,0.3,0.3,0.3h0.5v1.5h-1.6c-0.6,0-0.9-0.3-0.9-0.7c0-0.1,0-0.3,0-0.3h0c0,0-0.6,1.1-2.2,1.1c-1.9,0-3.1-1.5-3.1-3.6
		C20.1,9.6,21.4,8.2,23.2,8.2z M25.3,11.8c0-1.1-0.6-2.1-1.7-2.1c-0.9,0-1.7,0.8-1.7,2.1c0,1.3,0.7,2.2,1.7,2.2
		C24.4,14,25.3,13.3,25.3,11.8z"/>
	<path class="st0" d="M29.1,7.4c0-0.2-0.1-0.3-0.3-0.3h-0.5V5.6h1.6c0.6,0,0.9,0.3,0.9,0.9v7c0,0.2,0.1,0.3,0.3,0.3h0.5v1.5h-1.6
		c-0.7,0-0.9-0.3-0.9-0.9V7.4z"/>
	<path class="st0" d="M35.9,8.2c2,0,3.1,1.5,3.1,3.3c0,0.2,0,0.6,0,0.6h-4.8c0.1,1.2,1,1.9,2.1,1.9c1.1,0,1.9-0.8,1.9-0.8l0.7,1.2
		c0,0-1.1,1-2.8,1c-2.3,0-3.7-1.7-3.7-3.6C32.4,9.7,33.9,8.2,35.9,8.2z M37.2,10.9c0-0.8-0.6-1.4-1.3-1.4c-0.9,0-1.5,0.5-1.7,1.4
		H37.2z"/>
	<path class="st0" d="M44.3,13c0,0,0.9,1,2.1,1c0.5,0,0.9-0.2,0.9-0.7c0-1-3.6-1-3.6-3.2c0-1.4,1.2-2,2.7-2c0.9,0,2.4,0.3,2.4,1.4
		v0.7h-1.5V10c0-0.3-0.5-0.5-0.9-0.5c-0.6,0-1,0.2-1,0.6c0,1.1,3.7,0.9,3.7,3.2c0,1.3-1.2,2.1-2.7,2.1c-1.9,0-2.9-1.2-2.9-1.2
		L44.3,13z"/>
	<path class="st0" d="M53.7,8.2c0.9,0,2.5,0.4,2.5,1.6v0.8h-1.5v-0.4c0-0.4-0.6-0.5-1-0.5c-1.2,0-2,0.9-2,2.2c0,1.4,1,2.1,2.2,2.1
		c1.2,0,2-0.9,2-0.9l0.7,1.2c0,0-1,1.2-2.9,1.2c-2.3,0-3.7-1.6-3.7-3.6C49.9,9.8,51.3,8.2,53.7,8.2z"/>
	<path class="st0" d="M57.8,7.4c0-0.2-0.1-0.3-0.3-0.3H57V5.6h1.6c0.6,0,0.9,0.3,0.9,0.9V9c0,0.3,0,0.6,0,0.6h0
		c0.3-0.7,1.2-1.4,2.4-1.4c1.5,0,2.4,0.8,2.4,2.6v2.7c0,0.2,0.1,0.3,0.3,0.3h0.5v1.5h-1.6c-0.6,0-0.9-0.3-0.9-0.9v-3.2
		c0-0.8-0.2-1.4-1.1-1.4c-0.9,0-1.6,0.6-1.9,1.4c-0.1,0.3-0.1,0.6-0.1,0.9v3.2h-1.7V7.4z"/>
	<path class="st0" d="M69.4,8.2c2,0,3.1,1.5,3.1,3.3c0,0.2,0,0.6,0,0.6h-4.8c0.1,1.2,1,1.9,2.1,1.9c1.1,0,1.9-0.8,1.9-0.8l0.7,1.2
		c0,0-1.1,1-2.8,1c-2.3,0-3.7-1.7-3.7-3.6C65.9,9.7,67.3,8.2,69.4,8.2z M70.7,10.9c0-0.8-0.6-1.4-1.3-1.4c-0.9,0-1.5,0.5-1.7,1.4
		H70.7z"/>
	<path class="st0" d="M76.5,8.2c1.5,0,2,0.8,2,0.8h0c0,0,0-0.2,0-0.4V7.4c0-0.2-0.1-0.3-0.3-0.3h-0.5V5.6h1.6c0.6,0,0.9,0.3,0.9,0.9
		v7c0,0.2,0.1,0.3,0.3,0.3h0.5v1.5h-1.6c-0.6,0-0.9-0.3-0.9-0.7c0-0.1,0-0.3,0-0.3h0c0,0-0.6,1.1-2.2,1.1c-1.9,0-3.1-1.5-3.1-3.6
		C73.4,9.6,74.7,8.2,76.5,8.2z M78.6,11.8c0-1.1-0.6-2.1-1.7-2.1c-0.9,0-1.7,0.8-1.7,2.1c0,1.3,0.7,2.2,1.7,2.2
		C77.8,14,78.6,13.3,78.6,11.8z"/>
	<path class="st0" d="M82.5,10.1c0-0.2-0.1-0.3-0.3-0.3h-0.5V8.3h1.6c0.6,0,0.9,0.3,0.9,0.9v3.2c0,0.8,0.2,1.4,1.1,1.4
		c1.2,0,1.9-1.1,1.9-2.3V8.3h1.7v5.2c0,0.2,0.1,0.3,0.3,0.3h0.5v1.5h-1.6c-0.6,0-0.9-0.3-0.9-0.8v-0.2c0-0.2,0-0.3,0-0.3h0
		c-0.3,0.7-1.2,1.4-2.4,1.4c-1.5,0-2.4-0.7-2.4-2.6V10.1z"/>
	<path class="st0" d="M91.1,7.4c0-0.2-0.1-0.3-0.3-0.3h-0.5V5.6h1.6c0.6,0,0.9,0.3,0.9,0.9v7c0,0.2,0.1,0.3,0.3,0.3h0.5v1.5h-1.6
		c-0.7,0-0.9-0.3-0.9-0.9V7.4z"/>
	<path class="st0" d="M97.9,8.2c2,0,3.1,1.5,3.1,3.3c0,0.2,0,0.6,0,0.6h-4.8c0.1,1.2,1,1.9,2.1,1.9c1.1,0,1.9-0.8,1.9-0.8l0.7,1.2
		c0,0-1.1,1-2.8,1c-2.3,0-3.7-1.7-3.7-3.6C94.4,9.7,95.9,8.2,97.9,8.2z M99.2,10.9c0-0.8-0.6-1.4-1.3-1.4c-0.9,0-1.5,0.5-1.7,1.4
		H99.2z"/>
</g>
</svg>
